<?xml version="1.0" encoding="utf-8"?>
<!-- Generator: Adobe Illustrator 15.1.0, SVG Export Plug-In . SVG Version: 6.00 Build 0)  -->
<!DOCTYPE svg PUBLIC "-//W3C//DTD SVG 1.1//EN" "http://www.w3.org/Graphics/SVG/1.1/DTD/svg11.dtd">
<svg version="1.1" id="Calque_1" xmlns="http://www.w3.org/2000/svg" xmlns:xlink="http://www.w3.org/1999/xlink" x="0px" y="0px"
	 width="800px" height="600px" viewBox="0 0 800 600" enable-background="new 0 0 800 600" xml:space="preserve">
<path fill="#50FF14" d="M0,101.751L81.95,0h142.269v129.169h29.55v59.711h-29.55v28.636H120.944V188.88H0V101.751z M120.944,59.71
	h-0.609l-52.094,72.2h52.704V59.71z"/>
<path fill="#50FF14" d="M399.999,429.33c-74.029,0-123.381-28.939-123.381-115.155c0-86.215,49.352-115.156,123.381-115.156
	c74.026,0,123.38,28.941,123.38,115.156C523.379,400.391,474.025,429.33,399.999,429.33z M399.999,277.313
	c-24.372,0-32.292,15.537-32.292,41.43c0,26.2,7.921,41.738,32.292,41.738c24.371,0,32.292-15.538,32.292-41.738
	C432.291,292.85,424.37,277.313,399.999,277.313z"/>
<path fill="#50FF14" d="M546.229,484.235l81.95-101.751h142.27v129.169H800v59.711h-29.551V600H667.176v-28.636H546.229V484.235z
	 M667.176,442.195h-0.611l-52.094,72.199h52.705V442.195z"/>
</svg>
